Tidy Text Mining
…
            Tidy Text Mining

Chapter 3 Sentiment Analysis with Tidy Data

3.1 The sentiments dataset

The

sentiments

## # A tibble: 23,165 x 4
##           word sentiment lexicon score
##          <chr>     <chr>   <chr> <int>
## 1       abacus     trust     nrc    NA
## 2      abandon      fear     nrc    NA
## 3      abandon  negative     nrc    NA
## 4      abandon   sadness     nrc    NA
## 5    abandoned     anger     nrc    NA
## 6    abandoned      fear     nrc    NA
## 7    abandoned  negative     nrc    NA
## 8    abandoned   sadness     nrc    NA
## 9  abandonment     anger     nrc    NA
## 10 abandonment      fear     nrc    NA
## # ... with 23,155 more rows

3.2 Sentiment analysis with inner join

Sentiment analysis can be done as an inner join. Three sentiment lexicons are in the tidytext package in the sentiment dataset. Let’s look at the words with a joy score from the NRC lexicon. What are the most common joy words in Emma?

nrcjoy <- sentiments %>%
  filter(lexicon == "nrc", sentiment == "joy")

tidy_books %>%
  filter(book == "Emma") %>%
  semi_join(nrcjoy) %>%
  count(word, sort = TRUE)

## # A tibble: 298 x 2
##         word     n
##        <chr> <int>
## 1     friend   166
## 2       hope   143
## 3      happy   125
## 4       love   117
## 5       deal    92
## 6      found    92
## 7  happiness    76
## 8     pretty    68
## 9       true    66
## 10   comfort    65
## # ... with 288 more rows
…
3.2.1 Most common positive and negative words

One advantage of having the data frame with both sentiment and word is that we can analyze word counts that contribute to each sentiment.

bing_word_counts <- tidy_books %>%
  inner_join(bing) %>%
  count(word, sentiment, sort = TRUE) %>%
  ungroup()

bing_word_counts

## # A tibble: 2,555 x 3
##          word sentiment     n
##         <chr>     <chr> <int>
## 1  abominable  negative    17
## 2  abominably  negative     7
## 3   abominate  negative     3
## 4      abound  positive     1
## 5      abrupt  negative     5
## 6    abruptly  negative    12
## 7     absence  negative   111
## 8      absurd  negative    19
## 9   absurdity  negative    12
## 10  abundance  positive    14
## # ... with 2,545 more rows
…
