Tidy Text Mining
…
library(stringr)

# Each line is a JSON object- the fastest way to process is to combine into a
# single JSON string and use jsonlite::fromJSON
reviews_combined <- str_c("[", str_c(review_lines, collapse = ", "), "]")

reviews <- jsonlite::fromJSON(reviews_combined) %>%
  jsonlite::flatten() %>%
  tbl_df()

reviews

## # A tibble: 100,000 x 10
##                   user_id              review_id stars       date
## *                   <chr>                  <chr> <int>      <chr>
## 1  PUFPaY9KxDAcGqfsorJp3Q Ya85v4eqdd6k9Od8HbQjyA     4 2012-08-01
## 2  Iu6AxdBYGR4A0wspR9BYHA KPvLNJ21_4wbYNctrOwWdQ     5 2014-02-13
## 3  auESFwWvW42h6alXgFxAXQ fFSoGV46Yxuwbr3fHNuZig     5 2015-10-31
## 4  uK8tzraOp4M5u3uYrqIBXg Di3exaUCFNw1V4kSNW5pgA     5 2013-11-08
## 5  I_47G-R2_egp7ME5u_ltew 0Lua2-PbqEQMjD9r89-asw     3 2014-03-29
## 6  PP_xoMSYlGr2pb67BbqBdA 7N9j5YbBHBW6qguE5DAeyA     1 2014-10-29
## 7  JPPhyFE-UE453zA6K0TVgw mjCJR33jvUNt41iJCxDU_g     4 2014-11-28
## 8  2d5HeDvZTDUNVog_WuUpSg Ieh3kfZ-5J9pLju4JiQDvQ     5 2014-02-27
## 9  BShxMIUwaJS378xcrz4Nmg PU28OoBSHpZLkYGCmNxlmg     5 2015-06-16
## 10 fhNxoMwwTipzjO8A9LFe8Q XsA6AojkWjOHA4FmuAb8XQ     3 2012-08-19
## # ... with 99,990 more rows, and 6 more variables: text <chr>, type <chr>, business_id <chr>,
## #   votes.funny <int>, votes.useful <int>, votes.cool <int>
8.2 Tidy sentiment analysis

Right now, there is one row for each review. To analyze in the tidy text framework, we need to use the unnest_tokens function and turn this into one-row-per-term-per-document:

library(tidytext)

review_words <- reviews %>%
  select(review_id, business_id, stars, text) %>%
  unnest_tokens(word, text) %>%
  filter(!word %in% stop_words$word,
         str_detect(word, "^[a-z']+$"))

review_words

## # A tibble: 3,971,444 x 4
##                 review_id            business_id stars        word
##                     <chr>                  <chr> <int>       <chr>
## 1  Ya85v4eqdd6k9Od8HbQjyA 5UmKMjUEUNdYWqANhGckJw     4      hoagie
## 2  Ya85v4eqdd6k9Od8HbQjyA 5UmKMjUEUNdYWqANhGckJw     4 institution
## 3  Ya85v4eqdd6k9Od8HbQjyA 5UmKMjUEUNdYWqANhGckJw     4     walking
## 4  Ya85v4eqdd6k9Od8HbQjyA 5UmKMjUEUNdYWqANhGckJw     4   throwback
## 5  Ya85v4eqdd6k9Od8HbQjyA 5UmKMjUEUNdYWqANhGckJw     4         ago
## 6  Ya85v4eqdd6k9Od8HbQjyA 5UmKMjUEUNdYWqANhGckJw     4   fashioned
## 7  Ya85v4eqdd6k9Od8HbQjyA 5UmKMjUEUNdYWqANhGckJw     4        menu
## 8  Ya85v4eqdd6k9Od8HbQjyA 5UmKMjUEUNdYWqANhGckJw     4       board
## 9  Ya85v4eqdd6k9Od8HbQjyA 5UmKMjUEUNdYWqANhGckJw     4      booths
## 10 Ya85v4eqdd6k9Od8HbQjyA 5UmKMjUEUNdYWqANhGckJw     4   selection
## # ... with 3,971,434 more rows

Notice that there is now one-row-per-term-per-document: the In this cleaning process we’ve also removed “stopwords” (such as “I”, “the”, “and”, etc), and removing things things that are formatting (e.g. “—-”) rather than a word.

Now I’m going to do sentiment analysis on each review. We’ll use the AFINN lexicon, which provides a positivity score for each word, from -5 (most negative) to 5 (most positive).

AFINN <- sentiments %>%
  filter(lexicon == "AFINN") %>%
  select(word, afinn_score = score)

AFINN

## # A tibble: 2,476 x 2
##          word afinn_score
##         <chr>       <int>
## 1     abandon          -2
## 2   abandoned          -2
## 3    abandons          -2
## 4    abducted          -2
## 5   abduction          -2
## 6  abductions          -2
## 7       abhor          -3
## 8    abhorred          -3
## 9   abhorrent          -3
## 10     abhors          -3
## # ... with 2,466 more rows

Now as described in this post, our sentiment analysis is just an inner-join operation followed by a summary:

reviews_sentiment <- review_words %>%
  inner_join(AFINN, by = "word") %>%
  group_by(review_id, stars) %>%
  summarize(sentiment = mean(afinn_score))

reviews_sentiment

## Source: local data frame [93,947 x 3]
## Groups: review_id [?]
## 
##                 review_id stars  sentiment
##                     <chr> <int>      <dbl>
## 1  __-r0eC3hZlaejvuliC8zQ     5  4.0000000
## 2  __56FUEaW57kZEm56OZk7w     5  0.8333333
## 3  __6tOxx2VcvGR02d2ILkuw     5  1.7500000
## 4  __77nP3Nf1wsGz5HPs2hdw     5  1.6000000
## 5  __B5KInsYxFKIHKXAS6_rA     1 -2.0000000
## 6  __BIQ3tcFZg6_PpdadEfLQ     4  1.6000000
## 7  __DK9Vsmyoo0zJQhIl5cbg     1 -2.1000000
## 8  __ELCJ0wzDM2QNRfVUq26Q     5  3.5000000
## 9  __esH_kgJZeS8k3i6HaG7Q     5  0.2142857
## 10 __GXnNfKFLqFhMtpCTTT2g     3  0.8750000
## # ... with 93,937 more rows
…
Well, it’s a good start! Our sentiment scores are correlated with positivity ratings. But we do see that there’s a large amount of prediction error- some 5-star reviews have a highly negative sentiment score, and vice versa.

8.3 Which words are positive or negative?

We’re interested in analyzing the properties of words. Which are suggestive of positive reviews, and which are negative? To do this, we’ll create a per-word summary.

review_words_counted <- review_words %>%
  count(review_id, business_id, stars, word) %>%
  ungroup()

review_words_counted

## # A tibble: 3,405,173 x 5
##                 review_id            business_id stars      word     n
##                     <chr>                  <chr> <int>     <chr> <int>
## 1  ___XYEos-RIkPsQwplRYyw YxMnfznT3eYya0YV37tE8w     5    batter     1
## 2  ___XYEos-RIkPsQwplRYyw YxMnfznT3eYya0YV37tE8w     5     chips     3
## 3  ___XYEos-RIkPsQwplRYyw YxMnfznT3eYya0YV37tE8w     5  compares     1
## 4  ___XYEos-RIkPsQwplRYyw YxMnfznT3eYya0YV37tE8w     5 fashioned     1
## 5  ___XYEos-RIkPsQwplRYyw YxMnfznT3eYya0YV37tE8w     5  filleted     1
## 6  ___XYEos-RIkPsQwplRYyw YxMnfznT3eYya0YV37tE8w     5      fish     4
## 7  ___XYEos-RIkPsQwplRYyw YxMnfznT3eYya0YV37tE8w     5     fries     1
## 8  ___XYEos-RIkPsQwplRYyw YxMnfznT3eYya0YV37tE8w     5    frozen     1
## 9  ___XYEos-RIkPsQwplRYyw YxMnfznT3eYya0YV37tE8w     5 greenlake     1
## 10 ___XYEos-RIkPsQwplRYyw YxMnfznT3eYya0YV37tE8w     5      hand     1
## # ... with 3,405,163 more rows

word_summaries <- review_words_counted %>%
  group_by(word) %>%
  summarize(reviews = n(),
            uses = sum(n),
            average_stars = mean(stars)) %>%
  ungroup()

word_summaries

## # A tibble: 73,816 x 4
##          word reviews  uses average_stars
##         <chr>   <int> <int>         <dbl>
## 1   a'boiling       1     1          4.00
## 2      a'fare       1     1          4.00
## 3      a'ight       2     2          1.50
## 4        a'la       2     2          4.50
## 5        a'll       1     1          1.00
## 6      a'lyce       1     2          5.00
## 7      a'more       2     2          5.00
## 8    a'orange       1     1          5.00
## 9  a'prowling       1     1          3.00
## 10         aa      20    23          3.25
## # ... with 73,806 more rows

We can start by looking only at words that appear in at least 100 (out of 100000) reviews. This makes sense both because words that appear more rarely will have a noisier measurement (a few good or bad reviews could shift the balance), and because they’re less likely to be useful in classifying future reviews or text.

word_summaries_filtered <- word_summaries %>%
  filter(reviews >= 100)

word_summaries_filtered

## # A tibble: 4,465 x 4
##          word reviews  uses average_stars
##         <chr>   <int> <int>         <dbl>
## 1         aaa     100   145      3.780000
## 2     ability     210   215      3.580952
## 3    absolute     589   600      3.755518
## 4  absolutely    3195  3401      3.812520
## 5          ac     306   420      3.058824
## 6      accent     112   115      3.446429
## 7      accept     350   370      3.060000
## 8  acceptable     313   319      2.645367
## 9    accepted     162   167      3.030864
## 10     access     530   588      3.541509
## # ... with 4,455 more rows

What were the most positive and negative words?

word_summaries_filtered %>%
  arrange(desc(average_stars))

## # A tibble: 4,465 x 4
##             word reviews  uses average_stars
##            <chr>   <int> <int>         <dbl>
## 1       exceeded     160   161      4.675000
## 2   knowledgable     371   374      4.630728
## 3  compassionate     112   115      4.625000
## 4      exquisite     108   112      4.601852
## 5        chihuly     117   151      4.547009
## 6       treasure     152   159      4.546053
## 7    compliments     212   215      4.542453
## 8            gem     982   997      4.518330
## 9      botanical     184   241      4.510870
## 10   trustworthy     105   105      4.495238
## # ... with 4,455 more rows

word_summaries_filtered %>%
  arrange(average_stars)

## # A tibble: 4,465 x 4
##              word reviews  uses average_stars
##             <chr>   <int> <int>         <dbl>
## 1     incompetent     156   167      1.423077
## 2  unprofessional     362   383      1.447514
## 3       disgusted     124   126      1.475806
## 4          rudely     167   179      1.520958
## 5            lied     154   177      1.532468
## 6          refund     390   497      1.558974
## 7         refused     455   507      1.610989
## 8    unacceptable     201   203      1.616915
## 9           worst    2433  2653      1.619400
## 10         denied     100   111      1.650000
## # ... with 4,455 more rows
…
Note that some of the most common words (e.g. “food”) are pretty neutral. There are some common words that are pretty positive (e.g. “amazing”, “awesome”) and others that are pretty negative (“bad”, “told”).

8.4 Comparing to sentiment analysis

When we perform sentiment analysis, we’re often comparing to a pre-existing lexicon, one that was developed.

The tidytext package also comes with several tidy sentiment analysis lexicons:

sentiments

## # A tibble: 23,165 x 4
##           word sentiment lexicon score
##          <chr>     <chr>   <chr> <int>
## 1       abacus     trust     nrc    NA
## 2      abandon      fear     nrc    NA
## 3      abandon  negative     nrc    NA
## 4      abandon   sadness     nrc    NA
## 5    abandoned     anger     nrc    NA
## 6    abandoned      fear     nrc    NA
## 7    abandoned  negative     nrc    NA
## 8    abandoned   sadness     nrc    NA
## 9  abandonment     anger     nrc    NA
## 10 abandonment      fear     nrc    NA
## # ... with 23,155 more rows

We might expect that more positive words are associated with higher star reviews. Does this hold? We can combine and compare the two datasets with inner_join.

words_afinn <- word_summaries_filtered %>%
  inner_join(AFINN)

words_afinn

## # A tibble: 520 x 5
##            word reviews  uses average_stars afinn_score
##           <chr>   <int> <int>         <dbl>       <int>
## 1       ability     210   215      3.580952           2
## 2        accept     350   370      3.060000           1
## 3      accepted     162   167      3.030864           1
## 4      accident     213   239      3.629108          -2
## 5  accidentally     152   152      3.348684          -2
## 6        active     109   115      3.981651           1
## 7      adequate     290   304      3.262069           1
## 8         admit     740   754      3.666216          -1
## 9      admitted     111   118      2.225225          -1
## 10     adorable     255   266      4.250980           3
## # ... with 510 more rows
…
